[
	{
		"name": "Theme 1",
		"tagline":"Introduction to Theme 1. Lorem ipsum dolor sit. Amet I love croissant Apple pie macaroon toffee jujubes pie tart cookie applicake",
		"questions": [
			{
				"question": "What is 1 + 1?",
				"value": "50",
				"options": [
					{
						"text": "One"
					},
					{
						"text": "Eleven"
					},
					{
						"text": "Two",
						"correct": "true"
					},
					{
						"text": "Zero"
					}
				]
			},
			{
				"question": "What is the answer!",
				"value": "100",
				"options": [
					{
						"text": "What is the question?"
					},
					{
						"text": "The answer is C"
					},
					{
						"text": "The answer is A",
						"correct": "true"
					}
				]
			}
		]
	},
	{
		"name": "Theme 2",
		"tagline":"Introduction to Theme 2. Lorem ipsum dolor sit. Amet I love croissant Apple pie macaroon toffee jujubes pie tart cookie applicake",
		"questions": [
			{
				"question": "What is the answer!",
				"value": "100",
				"options": [
					{
						"text": "What is the question?"
					},
					{
						"text": "The answer is C"
					},
					{
						"text": "The answer is A",
						"correct": "true"
					}
				]
			},
			{
				"question": "What is 1 + 1?",
				"value": "50",
				"options": [
					{
						"text": "One"
					},
					{
						"text": "Eleven"
					},
					{
						"text": "Two",
						"correct": "true"
					},
					{
						"text": "Zero"
					}
				]
			}
		]
	},
	{
		"name": "Theme 3",
		"tagline":"Introduction to Theme 3. Lorem ipsum dolor sit. Amet I love croissant Apple pie macaroon toffee jujubes pie tart cookie applicake",
		"questions": [
			{
				"question": "What is the answer!",
				"value": "100",
				"options": [
					{
						"text": "What is the question?"
					},
					{
						"text": "The answer is C"
					},
					{
						"text": "The answer is A",
						"correct": "true"
					}
				]
			},
			{
				"question": "What is 1 + 1?",
				"value": "50",
				"options": [
					{
						"text": "One"
					},
					{
						"text": "Eleven"
					},
					{
						"text": "Two",
						"correct": "true"
					},
					{
						"text": "Zero"
					}
				]
			}
		]
	}
]